Semantic/Dataflow/org.gemoc.xcapella.dataflow.tests/gemoc-gen/execution/execution-20150910_183731/vcdFromSimu.vcd
$date 
Thu Sep 10 18:37:39 CEST 2015
$end

$version 
VCD Generation 2.1.0
$end

$comment alias test00__mainBlock__Root_Logical_Function_init "test00::mainBlock::Root Logical Function_init" $end
$comment alias test00__mainBlock__First_function_finish "test00::mainBlock::First function_finish" $end
$comment alias test00__mainBlock__Root_Logical_Function_finish "test00::mainBlock::Root Logical Function_finish" $end
$comment alias test00__mainBlock__Second_function_init "test00::mainBlock::Second function_init" $end
$comment alias test00__mainBlock__First_function_start "test00::mainBlock::First function_start" $end
$comment alias test00__mainBlock__Second_function_start "test00::mainBlock::Second function_start" $end
$comment alias test00__mainBlock__First_function_init "test00::mainBlock::First function_init" $end
$comment alias test00__mainBlock__Root_Logical_Function_start "test00::mainBlock::Root Logical Function_start" $end
$comment alias test00__mainBlock__Second_function_finish "test00::mainBlock::Second function_finish" $end
$comment hide test00__mainBlock__Second_function_OneTickAndNoMore_firstInit__OneTickAndNoMoreDef__OneTickAndNoMore_onlyOne__FilterByDef__FilterBy_death $end
$comment alias test00__mainBlock__Second_function_OneTickAndNoMore_firstInit__OneTickAndNoMoreDef__OneTickAndNoMore_onlyOne__FilterByDef__FilterBy_death "test00::mainBlock::Second function_OneTickAndNoMore_firstInit::OneTickAndNoMoreDef::OneTickAndNoMore_onlyOne::FilterByDef::FilterBy_death" $end
$comment hide test00__mainBlock__Second_function_OneTickAndNoMore_firstInit__OneTickAndNoMoreDef__OneTickAndNoMore_onlyOne__FilterByDef__killIt $end
$comment alias test00__mainBlock__Second_function_OneTickAndNoMore_firstInit__OneTickAndNoMoreDef__OneTickAndNoMore_onlyOne__FilterByDef__killIt "test00::mainBlock::Second function_OneTickAndNoMore_firstInit::OneTickAndNoMoreDef::OneTickAndNoMore_onlyOne::FilterByDef::killIt" $end
$comment alias test00__mainBlock__First_function_OneTickAndNoMore_firstInit "test00::mainBlock::First function_OneTickAndNoMore_firstInit" $end
$comment hide test00__mainBlock__Root_Logical_Function_OneTickAndNoMore_firstInit__OneTickAndNoMoreDef__OneTickAndNoMore_onlyOne__FilterByDef__FilterBy_concatWait $end
$comment alias test00__mainBlock__Root_Logical_Function_OneTickAndNoMore_firstInit__OneTickAndNoMoreDef__OneTickAndNoMore_onlyOne__FilterByDef__FilterBy_concatWait "test00::mainBlock::Root Logical Function_OneTickAndNoMore_firstInit::OneTickAndNoMoreDef::OneTickAndNoMore_onlyOne::FilterByDef::FilterBy_concatWait" $end
$comment hide test00__mainBlock__Root_Logical_Function_OneTickAndNoMore_firstInit__OneTickAndNoMoreDef__OneTickAndNoMore_onlyOne__FilterByDef__FilterBy_death $end
$comment alias test00__mainBlock__Root_Logical_Function_OneTickAndNoMore_firstInit__OneTickAndNoMoreDef__OneTickAndNoMore_onlyOne__FilterByDef__FilterBy_death "test00::mainBlock::Root Logical Function_OneTickAndNoMore_firstInit::OneTickAndNoMoreDef::OneTickAndNoMore_onlyOne::FilterByDef::FilterBy_death" $end
$comment hide test00__mainBlock__Second_function_OneTickAndNoMore_firstInit__OneTickAndNoMoreDef__OneTickAndNoMore_onlyOne__FilterByDef__FilterBy_FilterBySeqTail $end
$comment alias test00__mainBlock__Second_function_OneTickAndNoMore_firstInit__OneTickAndNoMoreDef__OneTickAndNoMore_onlyOne__FilterByDef__FilterBy_FilterBySeqTail "test00::mainBlock::Second function_OneTickAndNoMore_firstInit::OneTickAndNoMoreDef::OneTickAndNoMore_onlyOne::FilterByDef::FilterBy_FilterBySeqTail" $end
$comment hide test00__mainBlock__First_function_OneTickAndNoMore_firstInit__OneTickAndNoMoreDef__OneTickAndNoMore_onlyOne $end
$comment alias test00__mainBlock__First_function_OneTickAndNoMore_firstInit__OneTickAndNoMoreDef__OneTickAndNoMore_onlyOne "test00::mainBlock::First function_OneTickAndNoMore_firstInit::OneTickAndNoMoreDef::OneTickAndNoMore_onlyOne" $end
$comment hide test00__mainBlock__Second_functionAlternates_AlternateStartAndFinish__AlternatesDef__Alt_c1DelayedByOne $end
$comment alias test00__mainBlock__Second_functionAlternates_AlternateStartAndFinish__AlternatesDef__Alt_c1DelayedByOne "test00::mainBlock::Second functionAlternates_AlternateStartAndFinish::AlternatesDef::Alt_c1DelayedByOne" $end
$comment hide test00__mainBlock__First_function_OneTickAndNoMore_firstInit__OneTickAndNoMoreDef__OneTickAndNoMore_onlyOne__FilterByDef__killIt $end
$comment alias test00__mainBlock__First_function_OneTickAndNoMore_firstInit__OneTickAndNoMoreDef__OneTickAndNoMore_onlyOne__FilterByDef__killIt "test00::mainBlock::First function_OneTickAndNoMore_firstInit::OneTickAndNoMoreDef::OneTickAndNoMore_onlyOne::FilterByDef::killIt" $end
$comment hide test00__mainBlock__First_function_OneTickAndNoMore_firstInit__OneTickAndNoMoreDef__OneTickAndNoMore_onlyOne__FilterByDef__FilterBy_concatWait $end
$comment alias test00__mainBlock__First_function_OneTickAndNoMore_firstInit__OneTickAndNoMoreDef__OneTickAndNoMore_onlyOne__FilterByDef__FilterBy_concatWait "test00::mainBlock::First function_OneTickAndNoMore_firstInit::OneTickAndNoMoreDef::OneTickAndNoMore_onlyOne::FilterByDef::FilterBy_concatWait" $end
$comment alias test00__mainBlock__Root_Logical_Functionintermediate_firstSonStart1 "test00::mainBlock::Root Logical Functionintermediate_firstSonStart1" $end
$comment hide test00__mainBlock__First_functionAlternates_AlternateStartAndFinish__AlternatesDef__Alt_c1DelayedByOne $end
$comment alias test00__mainBlock__First_functionAlternates_AlternateStartAndFinish__AlternatesDef__Alt_c1DelayedByOne "test00::mainBlock::First functionAlternates_AlternateStartAndFinish::AlternatesDef::Alt_c1DelayedByOne" $end
$comment hide test00__mainBlock__First_function_OneTickAndNoMore_firstInit__OneTickAndNoMoreDef__OneTickAndNoMore_onlyOne__FilterByDef__FilterBy_FilterBySeqTail $end
$comment alias test00__mainBlock__First_function_OneTickAndNoMore_firstInit__OneTickAndNoMoreDef__OneTickAndNoMore_onlyOne__FilterByDef__FilterBy_FilterBySeqTail "test00::mainBlock::First function_OneTickAndNoMore_firstInit::OneTickAndNoMoreDef::OneTickAndNoMore_onlyOne::FilterByDef::FilterBy_FilterBySeqTail" $end
$comment hide test00__mainBlock__Second_function_OneTickAndNoMore_firstInit__OneTickAndNoMoreDef__OneTickAndNoMore_onlyOne $end
$comment alias test00__mainBlock__Second_function_OneTickAndNoMore_firstInit__OneTickAndNoMoreDef__OneTickAndNoMore_onlyOne "test00::mainBlock::Second function_OneTickAndNoMore_firstInit::OneTickAndNoMoreDef::OneTickAndNoMore_onlyOne" $end
$comment hide test00__mainBlock__Root_Logical_Function_OneTickAndNoMore_firstInit__OneTickAndNoMoreDef__OneTickAndNoMore_onlyOne__FilterByDef__FilterBy_waitHead $end
$comment alias test00__mainBlock__Root_Logical_Function_OneTickAndNoMore_firstInit__OneTickAndNoMoreDef__OneTickAndNoMore_onlyOne__FilterByDef__FilterBy_waitHead "test00::mainBlock::Root Logical Function_OneTickAndNoMore_firstInit::OneTickAndNoMoreDef::OneTickAndNoMore_onlyOne::FilterByDef::FilterBy_waitHead" $end
$comment hide test00__mainBlock__Second_function_OneTickAndNoMore_firstInit__OneTickAndNoMoreDef__OneTickAndNoMore_onlyOne__FilterByDef__FilterBy_waitHead $end
$comment alias test00__mainBlock__Second_function_OneTickAndNoMore_firstInit__OneTickAndNoMoreDef__OneTickAndNoMore_onlyOne__FilterByDef__FilterBy_waitHead "test00::mainBlock::Second function_OneTickAndNoMore_firstInit::OneTickAndNoMoreDef::OneTickAndNoMore_onlyOne::FilterByDef::FilterBy_waitHead" $end
$comment hide test00__mainBlock__Root_Logical_FunctionAlternates_AlternateStartAndFinish__AlternatesDef__Alt_c1DelayedByOne $end
$comment alias test00__mainBlock__Root_Logical_FunctionAlternates_AlternateStartAndFinish__AlternatesDef__Alt_c1DelayedByOne "test00::mainBlock::Root Logical FunctionAlternates_AlternateStartAndFinish::AlternatesDef::Alt_c1DelayedByOne" $end
$comment hide test00__mainBlock__Root_Logical_Function_OneTickAndNoMore_firstInit__OneTickAndNoMoreDef__OneTickAndNoMore_onlyOne $end
$comment alias test00__mainBlock__Root_Logical_Function_OneTickAndNoMore_firstInit__OneTickAndNoMoreDef__OneTickAndNoMore_onlyOne "test00::mainBlock::Root Logical Function_OneTickAndNoMore_firstInit::OneTickAndNoMoreDef::OneTickAndNoMore_onlyOne" $end
$comment alias test00__mainBlock__Root_Logical_Function_OneTickAndNoMore_firstInit "test00::mainBlock::Root Logical Function_OneTickAndNoMore_firstInit" $end
$comment hide test00__mainBlock__Second_function_OneTickAndNoMore_firstInit__OneTickAndNoMoreDef__OneTickAndNoMore_onlyOne__FilterByDef__FilterBy_concatWait $end
$comment alias test00__mainBlock__Second_function_OneTickAndNoMore_firstInit__OneTickAndNoMoreDef__OneTickAndNoMore_onlyOne__FilterByDef__FilterBy_concatWait "test00::mainBlock::Second function_OneTickAndNoMore_firstInit::OneTickAndNoMoreDef::OneTickAndNoMore_onlyOne::FilterByDef::FilterBy_concatWait" $end
$comment alias test00__mainBlock__Root_Logical_Functionintermediate_lastSonFinish1 "test00::mainBlock::Root Logical Functionintermediate_lastSonFinish1" $end
$comment hide test00__mainBlock__Root_Logical_Function_OneTickAndNoMore_firstInit__OneTickAndNoMoreDef__OneTickAndNoMore_onlyOne__FilterByDef__killIt $end
$comment alias test00__mainBlock__Root_Logical_Function_OneTickAndNoMore_firstInit__OneTickAndNoMoreDef__OneTickAndNoMore_onlyOne__FilterByDef__killIt "test00::mainBlock::Root Logical Function_OneTickAndNoMore_firstInit::OneTickAndNoMoreDef::OneTickAndNoMore_onlyOne::FilterByDef::killIt" $end
$comment hide test00__mainBlock__First_function_OneTickAndNoMore_firstInit__OneTickAndNoMoreDef__OneTickAndNoMore_onlyOne__FilterByDef__FilterBy_waitHead $end
$comment alias test00__mainBlock__First_function_OneTickAndNoMore_firstInit__OneTickAndNoMoreDef__OneTickAndNoMore_onlyOne__FilterByDef__FilterBy_waitHead "test00::mainBlock::First function_OneTickAndNoMore_firstInit::OneTickAndNoMoreDef::OneTickAndNoMore_onlyOne::FilterByDef::FilterBy_waitHead" $end
$comment hide test00__mainBlock__First_function_OneTickAndNoMore_firstInit__OneTickAndNoMoreDef__OneTickAndNoMore_onlyOne__FilterByDef__FilterBy_death $end
$comment alias test00__mainBlock__First_function_OneTickAndNoMore_firstInit__OneTickAndNoMoreDef__OneTickAndNoMore_onlyOne__FilterByDef__FilterBy_death "test00::mainBlock::First function_OneTickAndNoMore_firstInit::OneTickAndNoMoreDef::OneTickAndNoMore_onlyOne::FilterByDef::FilterBy_death" $end
$comment hide test00__mainBlock__Root_Logical_Function_OneTickAndNoMore_firstInit__OneTickAndNoMoreDef__OneTickAndNoMore_onlyOne__FilterByDef__FilterBy_FilterBySeqTail $end
$comment alias test00__mainBlock__Root_Logical_Function_OneTickAndNoMore_firstInit__OneTickAndNoMoreDef__OneTickAndNoMore_onlyOne__FilterByDef__FilterBy_FilterBySeqTail "test00::mainBlock::Root Logical Function_OneTickAndNoMore_firstInit::OneTickAndNoMoreDef::OneTickAndNoMore_onlyOne::FilterByDef::FilterBy_FilterBySeqTail" $end
$comment alias test00__mainBlock__Second_function_OneTickAndNoMore_firstInit "test00::mainBlock::Second function_OneTickAndNoMore_firstInit" $end
$comment scale 0.1  $end
$scope module top $end
$var event 1 !1 test00__mainBlock__Root_Logical_Function_init $end
$var event 1 !2 test00__mainBlock__First_function_finish $end
$var event 1 !3 test00__mainBlock__Root_Logical_Function_finish $end
$var event 1 !4 test00__mainBlock__Second_function_init $end
$var event 1 !5 test00__mainBlock__First_function_start $end
$var event 1 !6 test00__mainBlock__Second_function_start $end
$var event 1 !7 test00__mainBlock__First_function_init $end
$var event 1 !8 test00__mainBlock__Root_Logical_Function_start $end
$var event 1 !9 test00__mainBlock__Second_function_finish $end
$var event 1 !10 test00__mainBlock__Second_function_OneTickAndNoMore_firstInit__OneTickAndNoMoreDef__OneTickAndNoMore_onlyOne__FilterByDef__FilterBy_death $end
$var event 1 !11 test00__mainBlock__Second_function_OneTickAndNoMore_firstInit__OneTickAndNoMoreDef__OneTickAndNoMore_onlyOne__FilterByDef__killIt $end
$var event 1 !12 test00__mainBlock__First_function_OneTickAndNoMore_firstInit $end
$var event 1 !13 test00__mainBlock__Root_Logical_Function_OneTickAndNoMore_firstInit__OneTickAndNoMoreDef__OneTickAndNoMore_onlyOne__FilterByDef__FilterBy_concatWait $end
$var event 1 !14 test00__mainBlock__Root_Logical_Function_OneTickAndNoMore_firstInit__OneTickAndNoMoreDef__OneTickAndNoMore_onlyOne__FilterByDef__FilterBy_death $end
$var event 1 !15 test00__mainBlock__Second_function_OneTickAndNoMore_firstInit__OneTickAndNoMoreDef__OneTickAndNoMore_onlyOne__FilterByDef__FilterBy_FilterBySeqTail $end
$var event 1 !16 test00__mainBlock__First_function_OneTickAndNoMore_firstInit__OneTickAndNoMoreDef__OneTickAndNoMore_onlyOne $end
$var event 1 !17 test00__mainBlock__Second_functionAlternates_AlternateStartAndFinish__AlternatesDef__Alt_c1DelayedByOne $end
$var event 1 !18 test00__mainBlock__First_function_OneTickAndNoMore_firstInit__OneTickAndNoMoreDef__OneTickAndNoMore_onlyOne__FilterByDef__killIt $end
$var event 1 !19 test00__mainBlock__First_function_OneTickAndNoMore_firstInit__OneTickAndNoMoreDef__OneTickAndNoMore_onlyOne__FilterByDef__FilterBy_concatWait $end
$var event 1 !20 test00__mainBlock__Root_Logical_Functionintermediate_firstSonStart1 $end
$var event 1 !21 test00__mainBlock__First_functionAlternates_AlternateStartAndFinish__AlternatesDef__Alt_c1DelayedByOne $end
$var event 1 !22 test00__mainBlock__First_function_OneTickAndNoMore_firstInit__OneTickAndNoMoreDef__OneTickAndNoMore_onlyOne__FilterByDef__FilterBy_FilterBySeqTail $end
$var event 1 !23 test00__mainBlock__Second_function_OneTickAndNoMore_firstInit__OneTickAndNoMoreDef__OneTickAndNoMore_onlyOne $end
$var event 1 !24 test00__mainBlock__Root_Logical_Function_OneTickAndNoMore_firstInit__OneTickAndNoMoreDef__OneTickAndNoMore_onlyOne__FilterByDef__FilterBy_waitHead $end
$var event 1 !25 test00__mainBlock__Second_function_OneTickAndNoMore_firstInit__OneTickAndNoMoreDef__OneTickAndNoMore_onlyOne__FilterByDef__FilterBy_waitHead $end
$var event 1 !26 test00__mainBlock__Root_Logical_FunctionAlternates_AlternateStartAndFinish__AlternatesDef__Alt_c1DelayedByOne $end
$var event 1 !27 test00__mainBlock__Root_Logical_Function_OneTickAndNoMore_firstInit__OneTickAndNoMoreDef__OneTickAndNoMore_onlyOne $end
$var event 1 !28 test00__mainBlock__Root_Logical_Function_OneTickAndNoMore_firstInit $end
$var event 1 !29 test00__mainBlock__Second_function_OneTickAndNoMore_firstInit__OneTickAndNoMoreDef__OneTickAndNoMore_onlyOne__FilterByDef__FilterBy_concatWait $end
$var event 1 !30 test00__mainBlock__Root_Logical_Functionintermediate_lastSonFinish1 $end
$var event 1 !31 test00__mainBlock__Root_Logical_Function_OneTickAndNoMore_firstInit__OneTickAndNoMoreDef__OneTickAndNoMore_onlyOne__FilterByDef__killIt $end
$var event 1 !32 test00__mainBlock__First_function_OneTickAndNoMore_firstInit__OneTickAndNoMoreDef__OneTickAndNoMore_onlyOne__FilterByDef__FilterBy_waitHead $end
$var event 1 !33 test00__mainBlock__First_function_OneTickAndNoMore_firstInit__OneTickAndNoMoreDef__OneTickAndNoMore_onlyOne__FilterByDef__FilterBy_death $end
$var event 1 !34 test00__mainBlock__Root_Logical_Function_OneTickAndNoMore_firstInit__OneTickAndNoMoreDef__OneTickAndNoMore_onlyOne__FilterByDef__FilterBy_FilterBySeqTail $end
$var event 1 !35 test00__mainBlock__Second_function_OneTickAndNoMore_firstInit $end
$upscope $end
$enddefinitions $end

#10
1!1
1!4
1!7
#20
1!8
#30
1!5
#40
1!2
#50
1!6
#60
1!9
#70
1!3
#80
z!1
z!2
z!3
z!4
z!5
z!6
z!7
z!8
z!9
z!10
z!11
z!12
z!13
z!14
z!15
z!16
z!17
z!18
z!19
z!20
z!21
z!22
z!23
z!24
z!25
z!26
z!27
z!28
z!29
z!30
z!31
z!32
z!33
z!34
z!35
